<?xml version="1.0" standalone="no"?>
<!DOCTYPE svg PUBLIC "-//W3C//DTD SVG 20010904//EN"
 "http://www.w3.org/TR/2001/REC-SVG-20010904/DTD/svg10.dtd">
<svg version="1.0" xmlns="http://www.w3.org/2000/svg"
 width="700.000000pt" height="700.000000pt" viewBox="0 0 700.000000 700.000000"
 preserveAspectRatio="xMidYMid meet">
<metadata>
Created by potrace 1.14, written by Peter Selinger 2001-2017
</metadata>
<g transform="translate(0.000000,700.000000) scale(0.100000,-0.100000)"
fill="#000000" stroke="none">
<path d="M3220 5765 c-526 -68 -978 -290 -1351 -665 -280 -283 -484 -644 -584
-1034 -52 -206 -69 -343 -69 -566 0 -218 15 -347 65 -550 209 -849 904 -1513
1761 -1684 1020 -204 2040 298 2498 1229 156 317 232 643 233 1000 0 266 -35
483 -118 733 -268 802 -968 1393 -1811 1528 -137 22 -488 27 -624 9z m329
-931 l31 -25 2 -207 3 -207 528 -5 529 -5 19 -24 c42 -52 30 -118 -26 -134
-17 -5 -37 -13 -45 -17 -13 -6 -16 -109 -20 -806 -6 -889 -2 -836 -75 -936
-48 -65 -117 -114 -195 -138 -64 -20 -86 -21 -831 -18 l-764 3 -66 32 c-79 39
-140 102 -177 181 l-27 57 -5 808 c-5 874 -2 826 -57 827 -28 0 -63 45 -63 82
0 19 10 40 29 59 l29 29 521 0 521 0 0 209 0 209 31 26 c39 33 69 33 108 0z"/>
<path d="M3420 4365 c0 -25 1 -25 80 -25 79 0 80 0 80 25 0 25 -1 25 -80 25
-79 0 -80 0 -80 -25z"/>
<path d="M2775 3735 c-17 -16 -25 -35 -25 -60 0 -25 8 -44 25 -60 l24 -25 686
0 686 0 24 25 c34 33 34 87 0 120 l-24 25 -686 0 -686 0 -24 -25z"/>
<path d="M2775 3325 c-37 -36 -34 -86 6 -119 l31 -26 669 0 c689 0 696 0 726
39 21 27 15 79 -12 106 l-24 25 -686 0 -686 0 -24 -25z"/>
<path d="M2793 2939 c-34 -10 -63 -51 -63 -88 0 -11 11 -33 24 -48 l24 -28
685 -3 685 -2 28 24 c38 32 37 87 0 125 l-26 26 -663 2 c-394 1 -675 -2 -694
-8z"/>
</g>
</svg>
